module gitlab.com/zendrulat123/zachsite

go 1.16

require (
	github.com/gobuffalo/buffalo v0.16.20
	github.com/gobuffalo/buffalo-pop/v2 v2.3.0
	github.com/gobuffalo/envy v1.9.0
	github.com/gobuffalo/mw-csrf v1.0.0
	github.com/gobuffalo/mw-forcessl v0.0.0-20200131175327-94b2bd771862
	github.com/gobuffalo/mw-i18n v1.1.0
	github.com/gobuffalo/mw-paramlogger v1.0.0
	github.com/gobuffalo/nulls v0.4.0
	github.com/gobuffalo/packr/v2 v2.8.1
	github.com/gobuffalo/pop/v5 v5.3.1
	github.com/gobuffalo/suite v2.8.2+incompatible
	github.com/gobuffalo/validate/v3 v3.3.0
	github.com/gobuffalo/x v0.1.0
	github.com/gofrs/uuid v4.0.0+incompatible
	github.com/markbates/grift v1.5.0
	github.com/unrolled/secure v1.0.8
)
